\begin{thebibliography}{1}

\bibitem{AsaiPOF2004}
M.~Asai and J.M. Floryan.
\newblock Certain aspects of channel entrance flow.
\newblock {\em Physics of Fluids}, 16:1160--1163, 2004.

\bibitem{DraadJFM1998}
A.A. Draad, G.D.C. Kuiken, and F.T.M. Nieuwstadt.
\newblock Laminar-turbulent transition in pipe flow for {N}ewtonian and
  non-{N}ewtonian fluids.
\newblock {\em J. Fluid Mech.}, 377:267--312, 1998.

\end{thebibliography}
